<svg width="25" height="24" viewBox="0 0 25 24" fill="none" xmlns="http://www.w3.org/2000/svg">
<path d="M23.6875 6.78906C23.0723 5.11914 22.3867 3.48438 21.6309 1.90234C19.5918 2.58789 17.5176 3.13281 15.4082 3.55469C12.5781 4.13476 9.71289 4.43359 6.83008 4.45117C4.93164 4.46875 3.03321 4.29297 1.16993 3.95898C1.11719 4.57422 1.18751 5.18945 1.18751 5.82227C1.18751 11.7813 3.8418 17.4414 8.42969 21.2383C8.44727 21.0977 8.48242 20.957 8.5 20.8164C9.37891 15.3848 15.6367 9.6543 23.6875 6.78906Z" stroke="black" stroke-width="2" stroke-miterlimit="10"/>
</svg>
