<svg width="21" height="18" viewBox="0 0 21 18" fill="none" xmlns="http://www.w3.org/2000/svg">
<path d="M19.3184 15.8223V16.2441C14.8184 14.5742 9.47461 14.5039 3.91992 16.0859C3.30469 14.3809 2.60156 12.7461 1.8457 11.1289C5.71289 9.66992 12.9551 6.33008 13.957 2.28711C17.3848 5.96094 19.3008 10.7949 19.3184 15.8223Z" stroke="black" stroke-width="2" stroke-miterlimit="10"/>
</svg>
